Comparing Variances: The F Test – Datamares & Dreamscapes
…
New names:
Rows: 1000 Columns: 10
── Column specification
──────────────────────────────────────────────────────── Delimiter: "," chr
(5): Sex, Housing, Saving accounts, Checking account, Purpose dbl (5): ...1,
Age, Job, Credit amount, Duration
ℹ Use `spec()` to retrieve the full column specification for this data. ℹ
Specify the column types or set `show_col_types = FALSE` to quiet this message.
• `` -> `...1`

# viewing data
print(data)

# A tibble: 1,000 × 9
     Age Sex      Job Housing `Saving accounts` `Checking account`
   <dbl> <chr>  <dbl> <chr>   <chr>             <chr>             
 1    67 male       2 own     <NA>              little            
 2    22 female     2 own     little            moderate          
 3    49 male       1 own     little            <NA>              
 4    45 male       2 free    little            little            
 5    53 male       2 free    little            little            
 6    35 male       1 free    <NA>              <NA>              
 7    53 male       2 own     quite rich        <NA>              
 8    35 male       3 rent    little            moderate          
 9    61 male       1 own     rich              <NA>              
10    28 male       3 own     little            moderate          
# ℹ 990 more rows
# ℹ 3 more variables: `Credit amount` <dbl>, Duration <dbl>, Purpose <chr>
…
