…
data %>%
  mutate(gg = substr(cod_profissao, 1, 3)) %>%
  group_by(gg) %>%
  summarise(renda = mean(rem_media)) %>%
  arrange(desc(renda))

## # A tibble: 185 x 2
##    gg     renda
##    <chr>  <dbl>
##  1 122   30119.
##  2 242   22401.
##  3 213   21414.
##  4 254   19331.
##  5 811   16088.
##  6 201   15142.
##  7 750   14736.
##  8 102   14511.
##  9 121   14046.
## 10 214   13220.
## # ... with 175 more rows
…
